HDL/Register_Counters/t_Ripple_Counter_4bit.vcd
$date
	Mon Nov 25 16:53:04 2024
$end
$version
	Icarus Verilog
$end
$timescale
	1s
$end
$scope module t_Ripple_Counter_4bit $end
$var wire 4 ! A [3:0] $end
$var reg 1 " Count $end
$var reg 1 # Reset $end
$scope module M0 $end
$var wire 1 " Count $end
$var wire 1 # Reset $end
$var wire 1 $ A3 $end
$var wire 1 % A2 $end
$var wire 1 & A1 $end
$var wire 1 ' A0 $end
$scope module F0 $end
$var wire 1 " CLK $end
$var wire 1 # Reset $end
$var reg 1 ' Q $end
$upscope $end
$scope module F1 $end
$var wire 1 ' CLK $end
$var wire 1 # Reset $end
$var reg 1 & Q $end
$upscope $end
$scope module F2 $end
$var wire 1 & CLK $end
$var wire 1 # Reset $end
$var reg 1 % Q $end
$upscope $end
$scope module F3 $end
$var wire 1 % CLK $end
$var wire 1 # Reset $end
$var reg 1 $ Q $end
$upscope $end
$upscope $end
$upscope $end
$enddefinitions $end
$comment Show the parameter values. $end
$dumpall
$end
#0
$dumpvars
x'
x&
x%
x$
x#
0"
bx !
$end
#4
0'
0&
0%
b0 !
0$
1#
#5
1"
#8
0#
#10
0"
#12
b1 !
1'
#15
1"
#20
0"
#22
b0 !
0'
#24
b10 !
1&
#25
1"
#30
0"
#32
b11 !
1'
#35
1"
#40
0"
#42
b10 !
0'
#44
b0 !
0&
#45
1"
#46
b100 !
1%
#50
0"
#52
b101 !
1'
#55
1"
#60
0"
#62
b100 !
0'
#64
b110 !
1&
#65
1"
#70
0"
#72
b111 !
1'
#75
1"
#80
0"
#82
b110 !
0'
#84
b100 !
0&
#85
1"
#86
b0 !
0%
#88
b1000 !
1$
#90
0"
#92
b1001 !
1'
#95
1"
#100
0"
#102
b1000 !
0'
#104
b1010 !
1&
#105
1"
#110
0"
#112
b1011 !
1'
#115
1"
#120
0"
#122
b1010 !
0'
#124
b1000 !
0&
#125
1"
#126
b1100 !
1%
#130
0"
#132
b1101 !
1'
#135
1"
#140
0"
#142
b1100 !
0'
#144
b1110 !
1&
#145
1"
#150
0"
#152
b1111 !
1'
#155
1"
#160
0"
#162
b1110 !
0'
#164
b1100 !
0&
#165
1"
#166
b1000 !
0%
#168
b0 !
0$
